/* XPM */
static char * fleche_bd_xpm[] = {
"75 75 172 2",
"  	c None",
". 	c #A8A6A9",
"+ 	c #ABA9AC",
"@ 	c #B3B1B3",
"# 	c #B8B7B9",
"$ 	c #BAB9BB",
"% 	c #B2B1B3",
"& 	c #A7A5A8",
"* 	c #A6A4A7",
"= 	c #9E9C9F",
"- 	c #9A999B",
"; 	c #A4A2A5",
"> 	c #A09EA1",
", 	c #A19FA2",
"' 	c #7A797A",
") 	c #686868",
"! 	c #8D8B8D",
"~ 	c #A3A2A4",
"{ 	c #979598",
"] 	c #747374",
"^ 	c #717071",
"/ 	c #949395",
"( 	c #A5A4A6",
"_ 	c #9F9DA0",
": 	c #6F6E6E",
"< 	c #474645",
"[ 	c #5E5D5D",
"} 	c #8D8C8E",
"| 	c #6C6B6D",
"1 	c #454444",
"2 	c #434141",
"3 	c #676667",
"4 	c #949295",
"5 	c #A6A4A6",
"6 	c #3D3C3B",
"7 	c #3A3938",
"8 	c #5D5C5D",
"9 	c #979698",
"0 	c #6D6C6D",
"a 	c #444343",
"b 	c #302F2D",
"c 	c #2F2E2C",
"d 	c #403F3E",
"e 	c #676666",
"f 	c #949294",
"g 	c #3C3C3A",
"h 	c #2E2D2B",
"i 	c #393837",
"j 	c #979597",
"k 	c #444443",
"l 	c #302F2E",
"m 	c #2C2B29",
"n 	c #2C2B28",
"o 	c #2F2E2B",
"p 	c #403F3D",
"q 	c #676665",
"r 	c #3C3B39",
"s 	c #2D2C29",
"t 	c #2D2C2A",
"u 	c #3A3937",
"v 	c #5D5C5C",
"w 	c #8C8B8C",
"x 	c #969597",
"y 	c #6C6B6C",
"z 	c #434343",
"A 	c #2F2E2A",
"B 	c #3F3F3D",
"C 	c #686767",
"D 	c #969496",
"E 	c #8D8C8D",
"F 	c #434242",
"G 	c #2F2E2D",
"H 	c #41403E",
"I 	c #696868",
"J 	c #3B3A39",
"K 	c #2C2B2A",
"L 	c #5F5E5E",
"M 	c #929092",
"N 	c #BAB8BB",
"O 	c #A09FA1",
"P 	c #757475",
"Q 	c #464545",
"R 	c #41413E",
"S 	c #6A6969",
"T 	c #3B3A3A",
"U 	c #2D2B2B",
"V 	c #2E2C2A",
"W 	c #41403F",
"X 	c #757474",
"Y 	c #A19FA1",
"Z 	c #444342",
"` 	c #42413F",
" .	c #6B6A6A",
"..	c #2D2B29",
"+.	c #3B3A38",
"@.	c #6F6D6E",
"#.	c #696869",
"$.	c #40403E",
"%.	c #424140",
"&.	c #6B6A6B",
"*.	c #959496",
"=.	c #686768",
"-.	c #424141",
";.	c #6C6A6B",
">.	c #959395",
",.	c #424041",
"'.	c #6C6A6C",
").	c #989699",
"!.	c #696768",
"~.	c #2F2D2D",
"{.	c #6D6C6E",
"].	c #989799",
"^.	c #6E6D6D",
"/.	c #6E6D6E",
"(.	c #999799",
"_.	c #9F9D9F",
":.	c #6D6C6C",
"<.	c #3A3A38",
"[.	c #434342",
"}.	c #6F6E6F",
"|.	c #99979A",
"1.	c #A6A5A7",
"2.	c #2C2A2A",
"3.	c #3B3939",
"4.	c #6A696A",
"5.	c #706F70",
"6.	c #9D9C9E",
"7.	c #6C6B6B",
"8.	c #2F2F2C",
"9.	c #9B999C",
"0.	c #3B3A37",
"a.	c #2C2B27",
"b.	c #41413F",
"c.	c #444242",
"d.	c #969497",
"e.	c #8E8D8F",
"f.	c #636262",
"g.	c #383735",
"h.	c #646262",
"i.	c #989698",
"j.	c #302E2D",
"k.	c #393737",
"l.	c #383737",
"m.	c #2E2D2C",
"n.	c #454344",
"o.	c #9E9C9E",
"p.	c #9D9B9E",
"q.	c #9C9A9C",
"r.	c #8F8D8F",
"s.	c #9C9B9D",
"t.	c #797879",
"u.	c #6D6B6B",
"v.	c #2C2A2B",
"w.	c #9A989A",
"x.	c #686668",
"y.	c #3C3B3A",
"z.	c #8C8B8D",
"A.	c #A3A1A4",
"B.	c #393937",
"C.	c #8E8C8E",
"D.	c #2B2B29",
"E.	c #5F5F5E",
"F.	c #2D2C2B",
"G.	c #A4A3A5",
"H.	c #908F91",
"I.	c #616061",
"J.	c #414040",
"K.	c #484747",
"L.	c #797778",
"M.	c #A5A3A6",
"N.	c #767475",
"O.	c #9A989B",
". . . . . . . . . . . . . . . . . . . . . + @ # $ $ $ $ $ $ $ $ $ $ $ $ $ $ $ $ $ $ $ $ $ $ $ $ $ $ $ # % + . . . . . . . . . . . . . . . . . . . . . ",
". . . . . . . . . . . . . . . . . . . . . . . . . . . . . . . . . . . . . . . . . . . . . . . . . . . . . . . . . . . . . . . . . . . . . . . . . . . ",
". . . . . . . . . . . . . . . . . . . . . . . . . . . . . . . . . . . . . . . . . . . . . . . . . . . . . . . . . . . . . . . . . . . . . . . . . . . ",
". . . . . . . . . . . . . . . . . . . . . . . . . . . . . . . . . . . . . . . . . . . . . . . . . . . . . . . . . . . . . . . . . . . . . . . . . . . ",
". . . . . . . . . . . . . . . . . . . . . . . . . . . . . . . . . . . . . . . . . . . . . . . . . . . . . . . . . . . . . . . . . . . . . . . . . . . ",
". . . . . . . . . . . . . . . . . . . . . . . . . . . . . . . . . . . . . . . . . . . . . . . . . . . . . . . . . . . . . . . . . . . . . . . . . . . ",
". . . . . . . . . . . . . . . . . . . . . . . . . . . . . . . . . . . . . . . . . . . . . . . . . . . . . . . . . . . . . . . . . . . . . . . . . . . ",
". . . . . . . . . . . . . . . . . . . . . . . . . . . . . . . . . . . . . . . . . . . . . . . . . . . . . . . . . . . . . . . . . . . . . . . . . . . ",
". . . . . . . . . . . . . . . . . . . . . . . . . . . . . . . . . . . . . . . . . . . . . . . . . . . . . . . . . . . . . . . . . . . . . . . . . . . ",
". . . . . . . . . . . . . . . . . . . . . . . . . . . . . . . . . . . . . . . . . . . . . . . . . . . . . . . . . . . . . . . . . . . . . . . . . . . ",
". . . . . . . . . . . . . . . . . . . . . . . . . . . . . . . . . . . . . . . . . . . . . . . . . . . . . . . . . . . . . . . . . . . . . . . . . . . ",
". . . . . . . . . . . . . . . . . . . . . . . . . . . . . . . . . . . . . . . . . . . . . . . . . . . . . . . . . . . . . . . . . . . . . . . . . . . ",
". . . . . . . . . . . . . . . . . . . . . . . . . . . . . . . . . . . . . . . . . . . . . . . . . . . . . . . . . . . . . . . . . . . . . . . . . . . ",
". . . . . . . . . . . . . . . . . . . . . . . . . . . . . . . . . . . . . . . . . . . . . . . . . . . . . . . . . . . . . . . . . . . . . . . . . . . ",
". . . . . . . . . . . . . . . . . . . . . . . . . . . . . . . . . . . . . . . . . . . . . . . . . . . . . . . . . . . . . . . . . . . . . . . . . . . ",
". . . . . . . . . . . . . . . . . . . . . . . . . . . . . . . . . . . . . . . . . . . . . . . . . . . . . . . . . . . . . . . . . . . . . . . . . . . ",
". . . . . . . . . . . . . . . . . . . . . . . . . . . . . . . . . . . . . . . . . . . . . . & . . . . . . . . . . . . . . . . . . . . . . . . . . . . ",
". . . . . . . . . . . . . . . . . . . . . . . . . . . . . . . . . . . . . . . . . . . . * = - ; . . . . . . . . . . . . . . . . . . . . . . . . . . . ",
". . . . . . . . . . . . . . . . . . . . . . . . * > > * . . . . . . . . . . . . . . . . , ' ) ! ~ . . . . . . . . . . . . . . . . . . . . . . . . . . ",
". . . . . . . . . . . . . . . . . . . . . . . * { ] ^ / ( . . . . . . . . . . . . . . . _ : < [ } ; . . . . . . . . . . . . . . . . . . . . . . . . . ",
". . . . . . . . . . . . . . . . . . . . . . * { | 1 2 3 4 5 . . . . . . . . . . . . . . _ : 6 7 8 ! ; . . . . . . . . . . . . . . . . . . . . . . . . ",
"+ . . . . . . . . . . . . . . . . . . . . * 9 0 a b c d e f 5 . . . . . . . . . . . . . _ : g h i 8 } ~ . . . . . . . . . . . . . . . . . . . . . . + ",
"@ . . . . . . . . . . . . . . . . . . . * j 0 k l m n o p q f * . . . . . . . . . . . . _ : r s t u v w ~ . . . . . . . . . . . . . . . . . . . . . % ",
"# . . . . . . . . . . . . . . . . . . * x y z l m m m n A B C D * . . . . . . . . . . . _ : r m m t i v E ; . . . . . . . . . . . . . . . . . . . . # ",
"$ . . . . . . . . . . . . . . . . . * { y F G m m m m m n o H I D * . . . . . . . . . . _ : J K m m t i L M * . . . . . . . . . . . . . . . . . . . N ",
"$ . . . . . . . . . . . . . . . . . O P Q b m m m m m m m n o R S j * . . . . . . . . . _ : T U K m m V W X Y . . . . . . . . . . . . . . . . . . . $ ",
"$ . . . . . . . . . . . . . . . . . > ] Z c m m m m m m m m n o `  .j * . . . . . . . . _ : J K m m m ..+.@._ . . . . . . . . . . . . . . . . . . . $ ",
"$ . . . . . . . . . . . . . . . . . * x #.$.c m m m m m m m m n c %.&.{ * . . . . . . . _ : J m m m m m J : _ . . . . . . . . . . . . . . . . . . . $ ",
"$ . . . . . . . . . . . . . . . . . . * *.=.d c m m m m m m m m m c -.;.{ * . . . . . . _ @.+.n n m m m J : _ . . . . . . . . . . . . . . . . . . . $ ",
"$ . . . . . . . . . . . . . . . . . . . * >.C d c m m m m m m m m m G ,.'.).* . . . . . _ @.+.n m m m m J : _ . . . . . . . . . . . . . . . . . . . $ ",
"$ . . . . . . . . . . . . . . . . . . . . * >.!.H o m m m m m m m m m ~.2 {.].* . . . . _ ^.+.m m m m m J : _ . . . . . . . . . . . . . . . . . . . $ ",
"$ . . . . . . . . . . . . . . . . . . . . . * D #.H c m m m m m m m m m G F /.(.* . . . _.:.<.m m m m m J : _ . . . . . . . . . . . . . . . . . . . $ ",
"$ . . . . . . . . . . . . . . . . . . . . . . * D #.W c m m m m m m m m m G [.}.|.1.. . = :.<.m m m 2.2.3.@._ . . . . . . . . . . . . . . . . . . . $ ",
"$ . . . . . . . . . . . . . . . . . . . . . . . * x 4.W c m m m m m m m m m G a 5.|.* . 6.7.<.n n m 2.2.3.@._ . . . . . . . . . . . . . . . . . . . $ ",
"$ . . . . . . . . . . . . . . . . . . . . . . . . * x S W c m m m m m m m m m 8.a }.|.* 9. .0.a.n m 2.2.3.@._ . . . . . . . . . . . . . . . . . . . $ ",
"$ . . . . . . . . . . . . . . . . . . . . . . . . . * x 4.b.c m m m m m m m m n c c.}.d.e.f.g.n m m 2.2.3.@._ . . . . . . . . . . . . . . . . . . . $ ",
"$ . . . . . . . . . . . . . . . . . . . . . . . . . . * j ;.%.c m m m m m m m m n G 1 e h.2 ~.2.m m 2.2.3.@._ . . . . . . . . . . . . . . . . . . . $ ",
"$ . . . . . . . . . . . . . . . . . . . . . . . . . . . * i.7.%.c m m m m m m m m m j.k.l.~.2.2.2.m 2.2.3.@._ . . . . . . . . . . . . . . . . . . . $ ",
"$ . . . . . . . . . . . . . . . . . . . . . . . . . . . . * { y -.~.m m m m m m m m 2.2.2.2.2.2.2.m 2.2.3.@._ . . . . . . . . . . . . . . . . . . . $ ",
"$ . . . . . . . . . . . . . . . . . . . . . . . . . . . . . * ).0 -.m.m m m m m m m 2.2.2.2.2.2.2.m 2.2.3.@._ . . . . . . . . . . . . . . . . . . . $ ",
"$ . . . . . . . . . . . . . . . . . . . . . . . . . . . . . . * ).0 -.c m m m m m m m m m m m m m m 2.2.3.@._ . . . . . . . . . . . . . . . . . . . $ ",
"$ . . . . . . . . . . . . . . . . . . . . . . . . . . . . . . . * ).0 2 ~.m m m m m m m m m m m m m 2.2.3.@._ . . . . . . . . . . . . . . . . . . . $ ",
"$ . . . . . . . . . . . . . . . . . . . . . . . . . . . . . . . . * )./.n.G 2.2.m m m m m m m m m n 2.2.3.@._ . . . . . . . . . . . . . . . . . . . $ ",
"$ . . . . . . . . . . . . . . . . . . . . . . . . . . . . . . . . . * d.e k.2.2.m m m m m m m m m m 2.2.3.@._ . . . . . . . . . . . . . . . . . . . $ ",
"$ . . . . . . . . . . . . . . . . * Y _ _ _ _ _ _ _ _ _ _ _ _ _.o.p.q.r.h.l.2.2.m m m K 2.K m m m m 2.2.3.@._ . . . . . . . . . . . . . . . . . . . $ ",
"$ . . . . . . . . . . . . . . . & s.t.: : : : : : : : : : @.^.:.u.7. .f.2 ~.2.2.m m K v.v.2.m m m m 2.2.3.@._ . . . . . . . . . . . . . . . . . . . $ ",
"$ . . . . . . . . . . . . . . . & w.x.Q 6 y.r r r J J J J +.+.+.+.+.0.g.~.2.2.2.m m 2.v.2.m m m m m 2.2.3.@._ . . . . . . . . . . . . . . . . . . . $ ",
"$ . . . . . . . . . . . . . . . . ; z.v i h s s s t m m t m m m m m n n 2.2.2.2.m m K 2.m m m m m m 2.2.3.@._ . . . . . . . . . . . . . . . . . . . $ ",
"$ . . . . . . . . . . . . . . . . . A.z.8 B.h s m m m m m m m n n m m m m m m m m m m m m m m m m m 2.2.3.@._ . . . . . . . . . . . . . . . . . . . $ ",
"$ . . . . . . . . . . . . . . . . . . ; C.[ u h m m m m m m m n n m D.D.m m m m m m m m m m m m m m 2.2.3.@._ . . . . . . . . . . . . . . . . . . . $ ",
"N . . . . . . . . . . . . . . . . . . . ; C.[ u t m 2.2.2.2.2.2.2.2.2.2.2.2.2.2.2.2.2.2.2.2.2.2.2.2.2.2.3.@._ . . . . . . . . . . . . . . . . . . . $ ",
"# . . . . . . . . . . . . . . . . . . . . ; r.E.7 F.2.2.2.2.2.2.2.2.2.2.2.2.2.2.2.2.2.2.2.2.2.2.2.2.2.2.3.@._ . . . . . . . . . . . . . . . . . . . # ",
"@ . . . . . . . . . . . . . . . . . . . . . G.H.I.J.3.3.3.3.3.3.3.3.3.3.3.3.3.3.3.3.3.3.3.3.3.3.3.3.3.3.K.L., . . . . . . . . . . . . . . . . . . . @ ",
"+ . . . . . . . . . . . . . . . . . . . . . . M.f N.@.@.@.@.@.@.@.@.@.@.@.@.@.@.@.@.@.@.@.@.@.@.@.@.@.@.L.O.& . . . . . . . . . . . . . . . . . . . + ",
". . . . . . . . . . . . . . . . . . . . . . . . * Y _ _ _ _ _ _ _ _ _ _ _ _ _ _ _ _ _ _ _ _ _ _ _ _ _ _ , & . . . . . . . . . . . . . . . . . . . . . ",
". . . . . . . . . . . . . . . . . . . . . . . . . . . . . . . . . . . . . . . . . . . . . . . . . . . . . . . . . . . . . . . . . . . . . . . . . . . ",
". . . . . . . . . . . . . . . . . . . . . . . . . . . . . . . . . . . . . . . . . . . . . . . . . . . . . . . . . . . . . . . . . . . . . . . . . . . ",
". . . . . . . . . . . . . . . . . . . . . . . . . . . . . . . . . . . . . . . . . . . . . . . . . . . . . . . . . . . . . . . . . . . . . . . . . . . ",
". . . . . . . . . . . . . . . . . . . . . . . . . . . . . . . . . . . . . . . . . . . . . . . . . . . . . . . . . . . . . . . . . . . . . . . . . . . ",
". . . . . . . . . . . . . . . . . . . . . . . . . . . . . . . . . . . . . . . . . . . . . . . . . . . . . . . . . . . . . . . . . . . . . . . . . . . ",
". . . . . . . . . . . . . . . . . . . . . . . . . . . . . . . . . . . . . . . . . . . . . . . . . . . . . . . . . . . . . . . . . . . . . . . . . . . ",
". . . . . . . . . . . . . . . . . . . . . . . . . . . . . . . . . . . . . . . . . . . . . . . . . . . . . . . . . . . . . . . . . . . . . . . . . . . ",
". . . . . . . . . . . . . . . . . . . . . . . . . . . . . . . . . . . . . . . . . . . . . . . . . . . . . . . . . . . . . . . . . . . . . . . . . . . ",
". . . . . . . . . . . . . . . . . . . . . . . . . . . . . . . . . . . . . . . . . . . . . . . . . . . . . . . . . . . . . . . . . . . . . . . . . . . ",
". . . . . . . . . . . . . . . . . . . . . . . . . . . . . . . . . . . . . . . . . . . . . . . . . . . . . . . . . . . . . . . . . . . . . . . . . . . ",
". . . . . . . . . . . . . . . . . . . . . . . . . . . . . . . . . . . . . . . . . . . . . . . . . . . . . . . . . . . . . . . . . . . . . . . . . . . ",
". . . . . . . . . . . . . . . . . . . . . . . . . . . . . . . . . . . . . . . . . . . . . . . . . . . . . . . . . . . . . . . . . . . . . . . . . . . ",
". . . . . . . . . . . . . . . . . . . . . . . . . . . . . . . . . . . . . . . . . . . . . . . . . . . . . . . . . . . . . . . . . . . . . . . . . . . ",
". . . . . . . . . . . . . . . . . . . . . . . . . . . . . . . . . . . . . . . . . . . . . . . . . . . . . . . . . . . . . . . . . . . . . . . . . . . ",
". . . . . . . . . . . . . . . . . . . . . . . . . . . . . . . . . . . . . . . . . . . . . . . . . . . . . . . . . . . . . . . . . . . . . . . . . . . ",
". . . . . . . . . . . . . . . . . . . . . . . . . . . . . . . . . . . . . . . . . . . . . . . . . . . . . . . . . . . . . . . . . . . . . . . . . . . ",
". . . . . . . . . . . . . . . . . . . . . . . . . . . . . . . . . . . . . . . . . . . . . . . . . . . . . . . . . . . . . . . . . . . . . . . . . . . ",
". . . . . . . . . . . . . . . . . . . . . . . . . . . . . . . . . . . . . . . . . . . . . . . . . . . . . . . . . . . . . . . . . . . . . . . . . . . ",
". . . . . . . . . . . . . . . . . . . . . . . . . . . . . . . . . . . . . . . . . . . . . . . . . . . . . . . . . . . . . . . . . . . . . . . . . . . ",
". . . . . . . . . . . . . . . . . . . . . + @ # $ $ $ $ $ $ $ $ $ $ $ $ $ $ $ $ $ $ $ $ $ $ $ $ $ $ $ # @ + . . . . . . . . . . . . . . . . . . . . . "};
